[
    {
        "question": "Платформа Андроид основывается на операционной системе:",
        "answer": {
            "v1": "Linux",
            "v2": "MAC",
            "v3": "Unix",
            "v4": "Windows CE",
            "v5": "Windows XP"
        },
        "correct": "v1"
    },
    {
        "question": "Архитектура платформы Андроид состоит из:",
        "answer": {
            "v1": "Приложений, фреймворка приложений, библиотек, среды выполнения Андроид, ядра Linux.",
            "v2": "Приложений, библиотек, фреймворка библиотек, среды выполнения Андроид, ядра Linux.",
            "v3": "Приложений, телефонного менеджера, библиотек, среды выполнения Андроид.",
            "v4": "Приложений, телефонного менеджера, библиотек, ядра Linux.",
            "v5": "Телефонного менеджера, библиотек, среды выполнения Андроид, ядра Linux."
        },
        "correct": "v1"
    },
    {
        "question": "Базовая единица графического интерфейса приложения Андроид это:",
        "answer": {
            "v1": "Ничего из ниже перечисленного.",
            "v2": "Интерактивные элементы экрана.",
            "v3": "Layout и Drawing.",
            "v4": "View и Viewgroups.",
            "v5": "Widgets."
        },
        "correct": "v3"
    },
    {
        "question": "Как называется Java виртуальная машина платформы Андроид:",
        "answer": {
            "v1": "NET Framework",
            "v2": "Dalvik",
            "v3": "Forth Virtual Machine",
            "v4": "Juke Virtual Machine",
            "v5": "Parrot Virtual Machine"
        },
        "correct": "v2"
    },
    {
        "question": "Что представляет собой формат APK?",
        "answer": {
            "v1": "Андроид файл контента.",
            "v2": "Андроид файл данных.",
            "v3": "Андроид файл пакета.",
            "v4": "Андроид файл ресурсов.",
            "v5": "Ничего из выше перечисленного."
        },
        "correct": "v3"
    }
]
